<?xml version="1.0" encoding="UTF-8"?>
<svg width="27px" height="27px" viewBox="0 0 27 27" version="1.1" xmlns="http://www.w3.org/2000/svg" xmlns:xlink="http://www.w3.org/1999/xlink">
    <!-- Generator: Sketch 49 (51002) - http://www.bohemiancoding.com/sketch -->
    <title></title>
    <desc>Created with Sketch.</desc>
    <defs></defs>
    <g id="Page-1" stroke="none" stroke-width="1" fill="none" fill-rule="evenodd" opacity="0.600000024">
        <g id="Content-Page-Copy" transform="translate(-1417.000000, -1212.000000)" fill="#FFFFFF">
            <path d="M1435,1225.5 C1435,1224.25781 1434.56055,1223.19727 1433.68164,1222.31836 C1432.80273,1221.43945 1431.74219,1221 1430.5,1221 C1429.25781,1221 1428.19727,1221.43945 1427.31836,1222.31836 C1426.43945,1223.19727 1426,1224.25781 1426,1225.5 C1426,1226.74219 1426.43945,1227.80273 1427.31836,1228.68164 C1428.19727,1229.56055 1429.25781,1230 1430.5,1230 C1431.74219,1230 1432.80273,1229.56055 1433.68164,1228.68164 C1434.56055,1227.80273 1435,1226.74219 1435,1225.5 Z M1437.42578,1225.5 C1437.42578,1227.42188 1436.75196,1229.05663 1435.4043,1230.4043 C1434.05663,1231.75196 1432.42188,1232.42578 1430.5,1232.42578 C1428.57812,1232.42578 1426.94337,1231.75196 1425.5957,1230.4043 C1424.24804,1229.05663 1423.57422,1227.42188 1423.57422,1225.5 C1423.57422,1223.57812 1424.24804,1221.94337 1425.5957,1220.5957 C1426.94337,1219.24804 1428.57812,1218.57422 1430.5,1218.57422 C1432.42188,1218.57422 1434.05663,1219.24804 1435.4043,1220.5957 C1436.75196,1221.94337 1437.42578,1223.57812 1437.42578,1225.5 Z M1439.32422,1218.29297 C1439.32422,1218.73828 1439.16602,1219.11914 1438.84961,1219.43555 C1438.5332,1219.75195 1438.15235,1219.91016 1437.70703,1219.91016 C1437.26172,1219.91016 1436.88086,1219.75195 1436.56445,1219.43555 C1436.24805,1219.11914 1436.08984,1218.73828 1436.08984,1218.29297 C1436.08984,1217.84765 1436.24805,1217.4668 1436.56445,1217.15039 C1436.88086,1216.83398 1437.26172,1216.67578 1437.70703,1216.67578 C1438.15235,1216.67578 1438.5332,1216.83398 1438.84961,1217.15039 C1439.16602,1217.4668 1439.32422,1217.84765 1439.32422,1218.29297 Z M1430.5,1214.42578 C1430.41797,1214.42578 1429.96973,1214.42285 1429.15527,1214.41699 C1428.34082,1214.41113 1427.72266,1214.41113 1427.30078,1214.41699 C1426.8789,1214.42285 1426.31348,1214.44043 1425.60449,1214.46973 C1424.8955,1214.49902 1424.29199,1214.55762 1423.79395,1214.64551 C1423.2959,1214.7334 1422.87695,1214.8418 1422.53711,1214.9707 C1421.95117,1215.20508 1421.43555,1215.54492 1420.99023,1215.99023 C1420.54492,1216.43555 1420.20508,1216.95117 1419.9707,1217.53711 C1419.8418,1217.87695 1419.7334,1218.2959 1419.64551,1218.79395 C1419.55762,1219.29199 1419.49902,1219.8955 1419.46973,1220.60449 C1419.44043,1221.31348 1419.42285,1221.8789 1419.41699,1222.30078 C1419.41113,1222.72266 1419.41113,1223.34082 1419.41699,1224.15527 C1419.42285,1224.96973 1419.42578,1225.41797 1419.42578,1225.5 C1419.42578,1225.58203 1419.42285,1226.03027 1419.41699,1226.84473 C1419.41113,1227.65918 1419.41113,1228.27734 1419.41699,1228.69922 C1419.42285,1229.1211 1419.44043,1229.68652 1419.46973,1230.39551 C1419.49902,1231.1045 1419.55762,1231.70801 1419.64551,1232.20605 C1419.7334,1232.7041 1419.8418,1233.12305 1419.9707,1233.46289 C1420.20508,1234.04883 1420.54492,1234.56445 1420.99023,1235.00977 C1421.43555,1235.45508 1421.95117,1235.79492 1422.53711,1236.0293 C1422.87695,1236.1582 1423.2959,1236.2666 1423.79395,1236.35449 C1424.29199,1236.44238 1424.8955,1236.50098 1425.60449,1236.53027 C1426.31348,1236.55957 1426.8789,1236.57715 1427.30078,1236.58301 C1427.72266,1236.58887 1428.34082,1236.58887 1429.15527,1236.58301 C1429.96973,1236.57715 1430.41797,1236.57422 1430.5,1236.57422 C1430.58203,1236.57422 1431.03027,1236.57715 1431.84473,1236.58301 C1432.65918,1236.58887 1433.27734,1236.58887 1433.69922,1236.58301 C1434.1211,1236.57715 1434.68652,1236.55957 1435.39551,1236.53027 C1436.1045,1236.50098 1436.70801,1236.44238 1437.20605,1236.35449 C1437.7041,1236.2666 1438.12305,1236.1582 1438.46289,1236.0293 C1439.04883,1235.79492 1439.56445,1235.45508 1440.00977,1235.00977 C1440.45508,1234.56445 1440.79492,1234.04883 1441.0293,1233.46289 C1441.1582,1233.12305 1441.2666,1232.7041 1441.35449,1232.20605 C1441.44238,1231.70801 1441.50098,1231.1045 1441.53027,1230.39551 C1441.55957,1229.68652 1441.57715,1229.1211 1441.58301,1228.69922 C1441.58887,1228.27734 1441.58887,1227.65918 1441.58301,1226.84473 C1441.57715,1226.03027 1441.57422,1225.58203 1441.57422,1225.5 C1441.57422,1225.41797 1441.57715,1224.96973 1441.58301,1224.15527 C1441.58887,1223.34082 1441.58887,1222.72266 1441.58301,1222.30078 C1441.57715,1221.8789 1441.55957,1221.31348 1441.53027,1220.60449 C1441.50098,1219.8955 1441.44238,1219.29199 1441.35449,1218.79395 C1441.2666,1218.2959 1441.1582,1217.87695 1441.0293,1217.53711 C1440.79492,1216.95117 1440.45508,1216.43555 1440.00977,1215.99023 C1439.56445,1215.54492 1439.04883,1215.20508 1438.46289,1214.9707 C1438.12305,1214.8418 1437.7041,1214.7334 1437.20605,1214.64551 C1436.70801,1214.55762 1436.1045,1214.49902 1435.39551,1214.46973 C1434.68652,1214.44043 1434.1211,1214.42285 1433.69922,1214.41699 C1433.27734,1214.41113 1432.65918,1214.41113 1431.84473,1214.41699 C1431.03027,1214.42285 1430.58203,1214.42578 1430.5,1214.42578 Z M1444,1225.5 C1444,1228.18361 1443.9707,1230.04101 1443.91211,1231.07227 C1443.79492,1233.50978 1443.06837,1235.39648 1441.73242,1236.73242 C1440.39648,1238.06837 1438.50978,1238.79492 1436.07227,1238.91211 C1435.04101,1238.9707 1433.18361,1239 1430.5,1239 C1427.81639,1239 1425.95899,1238.9707 1424.92773,1238.91211 C1422.49022,1238.79492 1420.60352,1238.06837 1419.26758,1236.73242 C1417.93163,1235.39648 1417.20508,1233.50978 1417.08789,1231.07227 C1417.0293,1230.04101 1417,1228.18361 1417,1225.5 C1417,1222.81639 1417.0293,1220.95899 1417.08789,1219.92773 C1417.20508,1217.49022 1417.93163,1215.60352 1419.26758,1214.26758 C1420.60352,1212.93163 1422.49022,1212.20508 1424.92773,1212.08789 C1425.95899,1212.0293 1427.81639,1212 1430.5,1212 C1433.18361,1212 1435.04101,1212.0293 1436.07227,1212.08789 C1438.50978,1212.20508 1440.39648,1212.93163 1441.73242,1214.26758 C1443.06837,1215.60352 1443.79492,1217.49022 1443.91211,1219.92773 C1443.9707,1220.95899 1444,1222.81639 1444,1225.5 Z" id=""></path>
        </g>
    </g>
</svg>